{
  "result": "success",
  "response": true,
  "data": {
      "lists_gameType": "",
      "lists_item": "",
      "lists_gameAll": [
          {
              "gameIcon": "https://alphaworldgaming-tw.pragmaticplay.net/game_pic/rec/325/bjmb.png",
              "gameName": "American Blackjack",
              "gameID": "bjmb",
              "gameTypeID": "bj"
          },
          {
              "gameIcon": "https://alphaworldgaming-tw.pragmaticplay.net/game_pic/rec/325/bjma.png",
              "gameName": "Multihand Blackjack",
              "gameID": "bjma",
              "gameTypeID": "bj"
          },
          {
              "gameIcon": "https://alphaworldgaming-tw.pragmaticplay.net/game_pic/rec/325/bca.png",
              "gameName": "Baccarat",
              "gameID": "bca",
              "gameTypeID": "bc"
          },
          {
              "gameIcon": "https://alphaworldgaming-tw.pragmaticplay.net/game_pic/rec/325/rla.png",
              "gameName": "Roulette",
              "gameID": "rla",
              "gameTypeID": "rl"
          },
          {
              "gameIcon": "https://alphaworldgaming-tw.pragmaticplay.net/game_pic/rec/325/vpa.png",
              "gameName": "Jacks or Better",
              "gameID": "vpa",
              "gameTypeID": "vp"
          },
          {
              "gameIcon": "https://alphaworldgaming-tw.pragmaticplay.net/game_pic/rec/325/411.png",
              "gameName": "Live - Baccarat D",
              "gameID": "411",
              "gameTypeID": "lg"
          },
          {
              "gameIcon": "https://alphaworldgaming-tw.pragmaticplay.net/game_pic/rec/325/413.png",
              "gameName": "Live - Baccarat E",
              "gameID": "413",
              "gameTypeID": "lg"
          },
          {
              "gameIcon": "https://alphaworldgaming-tw.pragmaticplay.net/game_pic/rec/325/110.png",
              "gameName": "Live - D&W",
              "gameID": "110",
              "gameTypeID": "lg"
          },
          {
              "gameIcon": "https://alphaworldgaming-tw.pragmaticplay.net/game_pic/rec/325/222.png",
              "gameName": "Live - German Roulette",
              "gameID": "222",
              "gameTypeID": "lg"
          },
          {
              "gameIcon": "https://alphaworldgaming-tw.pragmaticplay.net/game_pic/rec/325/223.png",
              "gameName": "Live - Italian Roulette",
              "gameID": "223",
              "gameTypeID": "lg"
          },
          {
              "gameIcon": "https://alphaworldgaming-tw.pragmaticplay.net/game_pic/rec/325/101.png",
              "gameName": "Live - Lobby",
              "gameID": "101",
              "gameTypeID": "lg"
          },
          {
              "gameIcon": "https://alphaworldgaming-tw.pragmaticplay.net/game_pic/rec/325/104.png",
              "gameName": "Live - Lobby Baccarat",
              "gameID": "104",
              "gameTypeID": "lg"
          },
          {
              "gameIcon": "https://alphaworldgaming-tw.pragmaticplay.net/game_pic/rec/325/102.png",
              "gameName": "Live - Lobby Roulette",
              "gameID": "102",
              "gameTypeID": "lg"
          },
          {
              "gameIcon": "https://alphaworldgaming-tw.pragmaticplay.net/game_pic/rec/325/701.png",
              "gameName": "Live - Mega Sic Bo",
              "gameID": "701",
              "gameTypeID": "lg"
          },
          {
              "gameIcon": "https://alphaworldgaming-tw.pragmaticplay.net/game_pic/rec/325/801.png",
              "gameName": "Live - Mega Wheel",
              "gameID": "801",
              "gameTypeID": "lg"
          },
          {
              "gameIcon": "https://alphaworldgaming-tw.pragmaticplay.net/game_pic/rec/325/901.png",
              "gameName": "Live - ONE Blackjack",
              "gameID": "901",
              "gameTypeID": "lg"
          },
          {
              "gameIcon": "https://alphaworldgaming-tw.pragmaticplay.net/game_pic/rec/325/111.png",
              "gameName": "Live - Other Promos",
              "gameID": "111",
              "gameTypeID": "lg"
          },
          {
              "gameIcon": "https://alphaworldgaming-tw.pragmaticplay.net/game_pic/rec/325/225.png",
              "gameName": "Live - Roulette Auto",
              "gameID": "225",
              "gameTypeID": "lg"
          },
          {
              "gameIcon": "https://alphaworldgaming-tw.pragmaticplay.net/game_pic/rec/325/227.png",
              "gameName": "Live - Roulette Azure",
              "gameID": "227",
              "gameTypeID": "lg"
          },
          {
              "gameIcon": "https://alphaworldgaming-tw.pragmaticplay.net/game_pic/rec/325/224.png",
              "gameName": "Live - Roulette Turkey",
              "gameID": "224",
              "gameTypeID": "lg"
          },
          {
              "gameIcon": "https://alphaworldgaming-tw.pragmaticplay.net/game_pic/rec/325/221.png",
              "gameName": "Live - Russian Roulette",
              "gameID": "221",
              "gameTypeID": "lg"
          },
          {
              "gameIcon": "https://alphaworldgaming-tw.pragmaticplay.net/game_pic/rec/325/403.png",
              "gameName": "Live - Speed Baccarat B",
              "gameID": "403",
              "gameTypeID": "lg"
          },
          {
              "gameIcon": "https://alphaworldgaming-tw.pragmaticplay.net/game_pic/rec/325/412.png",
              "gameName": "Live - Speed Baccarat C",
              "gameID": "412",
              "gameTypeID": "lg"
          },
          {
              "gameIcon": "https://alphaworldgaming-tw.pragmaticplay.net/game_pic/rec/325/414.png",
              "gameName": "Live - Speed Baccarat D",
              "gameID": "414",
              "gameTypeID": "lg"
          },
          {
              "gameIcon": "https://alphaworldgaming-tw.pragmaticplay.net/game_pic/rec/325/415.png",
              "gameName": "Live - Speed Baccarat E",
              "gameID": "415",
              "gameTypeID": "lg"
          },
          {
              "gameIcon": "https://alphaworldgaming-tw.pragmaticplay.net/game_pic/rec/325/401.png",
              "gameName": "Live - Baccarat A",
              "gameID": "401",
              "gameTypeID": "lg"
          },
          {
              "gameIcon": "https://alphaworldgaming-tw.pragmaticplay.net/game_pic/rec/325/404.png",
              "gameName": "Live - Baccarat B",
              "gameID": "404",
              "gameTypeID": "lg"
          },
          {
              "gameIcon": "https://alphaworldgaming-tw.pragmaticplay.net/game_pic/rec/325/405.png",
              "gameName": "Live - Baccarat C",
              "gameID": "405",
              "gameTypeID": "lg"
          },
          {
              "gameIcon": "https://alphaworldgaming-tw.pragmaticplay.net/game_pic/rec/325/204.png",
              "gameName": "Live - Mega Roulette",
              "gameID": "204",
              "gameTypeID": "lg"
          },
          {
              "gameIcon": "https://alphaworldgaming-tw.pragmaticplay.net/game_pic/rec/325/201.png",
              "gameName": "Live - Roulette A",
              "gameID": "201",
              "gameTypeID": "lg"
          },
          {
              "gameIcon": "https://alphaworldgaming-tw.pragmaticplay.net/game_pic/rec/325/206.png",
              "gameName": "Live - Roulette Macao",
              "gameID": "206",
              "gameTypeID": "lg"
          },
          {
              "gameIcon": "https://alphaworldgaming-tw.pragmaticplay.net/game_pic/rec/325/402.png",
              "gameName": "Live - Speed Baccarat A",
              "gameID": "402",
              "gameTypeID": "lg"
          },
          {
              "gameIcon": "https://alphaworldgaming-tw.pragmaticplay.net/game_pic/rec/325/203.png",
              "gameName": "Live - Speed Roulette",
              "gameID": "203",
              "gameTypeID": "lg"
          }
      ]
  },
  "data_message": [
      {
          "language_name": "th",
          "language_type": 1,
          "message": "ล็อกอินเกมสำเร็จ"
      },
      {
          "language_name": "en",
          "language_type": 2,
          "message": "Login Success"
      },
      {
          "language_name": "cn",
          "language_type": 3,
          "message": "登錄成功"
      }
  ],
  "message": ""
}